{
  "project_info": {
    "project_number": "825913261228",
    "firebase_url": "https://fir-timetablemanagement-a676c.firebaseio.com",
    "project_id": "fir-timetablemanagement-a676c",
    "storage_bucket": "fir-timetablemanagement-a676c.appspot.com"
  },
  "client": [
    {
      "client_info": {
        "mobilesdk_app_id": "1:825913261228:android:a99c57d32a5400ed",
        "android_client_info": {
          "package_name": "com.dunarctic.timetablemanagement"
        }
      },
      "oauth_client": [
        {
          "client_id": "825913261228-gfq1vslsm9neva83t969emtp7ei33mg9.apps.googleusercontent.com",
          "client_type": 3
        }
      ],
      "api_key": [
        {
          "current_key": "AIzaSyApB8UrObsqBusOMIbzJi3jEx-1pRGJf6k"
        }
      ],
      "services": {
        "analytics_service": {
          "status": 1
        },
        "appinvite_service": {
          "status": 1,
          "other_platform_oauth_client": []
        },
        "ads_service": {
          "status": 2
        }
      }
    }
  ],
  "configuration_version": "1"
}